{
  "__type__": "cc.AnimationClip",
  "_name": "balanceloading",
  "_objFlags": 0,
  "_native": "",
  "_duration": 1,
  "sample": 60,
  "speed": 0.8,
  "wrapMode": 2,
  "curveData": {
    "props": {
      "angle": [
        {
          "frame": 0,
          "value": 0
        },
        {
          "frame": 1,
          "value": -359
        }
      ]
    }
  },
  "events": []
}