{
  "__type__": "cc.AnimationClip",
  "_name": "modifypw",
  "_objFlags": 0,
  "_native": "",
  "_duration": 1,
  "sample": 60,
  "speed": 2,
  "wrapMode": 1,
  "curveData": {
    "paths": {
      "line": {
        "props": {
          "position": [
            {
              "frame": 0,
              "value": [
                -320,
                0,
                0
              ]
            },
            {
              "frame": 0.75,
              "value": [
                -40,
                0,
                0
              ]
            },
            {
              "frame": 1,
              "value": [
                0,
                0,
                0
              ]
            }
          ]
        }
      }
    }
  },
  "events": []
}